<?xml version="1.0" standalone="no"?>
<!DOCTYPE svg PUBLIC "-//W3C//DTD SVG 1.1//EN" "http://www.w3.org/Graphics/SVG/1.1/DTD/svg11.dtd" >
<svg xmlns="http://www.w3.org/2000/svg">
<metadata>Generated by IcoMoon</metadata>
<defs>
<font id="icomoon" horiz-adv-x="1024">
<font-face units-per-em="1024" ascent="960" descent="-64" />
<missing-glyph horiz-adv-x="1024" />
<glyph unicode="&#x20;" horiz-adv-x="512" d="" />
<glyph unicode="&#xe600;" glyph-name="FifthAve_logo_grey" horiz-adv-x="1325" d="M659.409 808.91l98.050-98.050v87.676l-98.050 98.050-98.050-98.050v-87.676zM518.024 667.357l97.882-97.882v87.508l-97.882 98.050-98.050-98.050v-87.508zM376.471 525.971l98.050-98.050v87.676l-98.050 97.882-98.050-97.882v-87.676zM234.918 384.418l98.050-98.050v87.676l-98.050 98.050-98.050-98.050v-87.676zM801.631 667.357l98.050-97.882v87.508l-98.050 98.050-97.882-98.050v-87.508zM660.246 525.971l97.882-98.050v87.676l-97.882 97.882-98.050-97.882v-87.676zM518.693 384.418l98.050-98.050v87.676l-98.050 98.050-98.050-98.050v-87.676zM943.854 525.971l98.050-98.050v87.676l-98.050 97.882-98.050-97.882v-87.676zM802.301 384.418l98.050-98.050v87.676l-98.050 98.050-97.882-98.050v-87.676zM1086.076 384.418l98.050-98.050v87.676l-98.050 98.050-98.050-98.050v-87.676zM17.903 212.246v-186.060h58.395v72.115h43.336v38.818h-43.336v32.293h71.278v42.834zM171.169 212.246h58.395v-186.060h-58.395v186.060zM260.518 212.246v-186.060h58.395v72.115h43.336v38.818h-43.336v32.293h71.278v42.834zM410.102 212.246v-45.846h44.675v-140.214h58.395v140.214h45.009v45.846zM681.328 212.246v-74.123h-40.492v74.123h-58.227v-186.060h58.227v67.263h40.492v-67.263h58.395v186.060zM905.37 150.17l11.378-60.068h-24.931l13.553 60.068zM873.746 212.246l-49.694-186.060h51.869l7.027 27.608h41.328l5.856-27.608h59.733l-49.359 186.060h-66.761zM1098.123 212.246l-27.608-109.26-26.771 109.26h-61.239l56.387-186.060h55.885l58.060 186.060zM1174.588 212.246v-186.060h132.685v47.519h-74.29v31.289h48.523v32.293h-48.523v30.452h74.29v44.507z" />
<glyph unicode="&#xe601;" glyph-name="phrd" horiz-adv-x="2864" d="M301.532 266.249h33.252c13.225 0 22.294-7.935 22.294-21.16 0-13.603-8.691-21.16-22.294-21.16h-26.072v-32.118h-7.179v74.438zM308.334 229.597h24.561c9.824 0 16.626 4.912 16.626 15.114s-6.801 15.114-16.626 15.114h-24.561v-30.229zM381.261 266.249h7.935l29.095-74.438h-7.557l-9.069 23.049h-34.007l-9.069-23.049h-7.557l30.229 74.438zM369.925 220.906h29.473l-14.359 38.164-15.114-38.164zM479.882 243.578c-2.645 11.336-12.092 18.137-23.049 18.137-19.649 0-27.962-16.626-27.962-32.874s8.313-32.874 27.962-32.874c13.603 0 22.672 10.58 23.805 23.805h7.179c-1.889-18.137-13.603-29.851-30.985-29.851-23.427 0-35.141 18.515-35.141 38.92s11.714 38.92 35.141 38.92c13.981 0 27.962-8.313 29.851-24.183h-6.801zM499.153 266.249h7.179v-74.438h-7.179v74.438zM521.824 266.249h47.232v-6.046h-40.053v-26.828h35.897v-6.046h-35.897v-35.519h-7.179v74.438zM578.503 266.249h7.179v-74.438h-7.179v74.438zM655.587 243.578c-2.645 11.336-12.092 18.137-23.049 18.137-19.649 0-27.962-16.626-27.962-32.874s8.313-32.874 27.962-32.874c13.603 0 22.672 10.58 23.805 23.805h7.179c-1.889-18.137-13.603-29.851-30.985-29.851-23.427 0-35.141 18.515-35.141 38.92s11.714 38.92 35.141 38.92c13.981 0 27.962-8.313 29.851-24.183h-6.801zM703.575 266.249h7.179v-32.496h44.21v32.496h7.179v-74.438h-7.179v36.275h-44.21v-36.275h-7.179v74.438zM777.635 266.249h7.179v-74.438h-7.179v74.438zM800.307 266.249h7.179v-68.393h41.942v-6.046h-48.744v74.438zM856.608 266.249h7.179v-68.393h41.942v-6.046h-48.744v74.438zM915.932 216.372c-0.378-15.492 10.58-20.027 24.183-20.027 7.935 0 19.649 4.156 19.649 15.114 0 8.313-8.313 11.714-15.492 13.603l-16.626 4.156c-8.691 2.267-16.626 6.424-16.626 18.137 0 7.179 4.534 21.16 25.694 21.16 14.737 0 27.584-7.935 27.584-23.049h-7.179c-0.378 11.336-9.824 17.004-20.404 17.004-9.824 0-18.515-3.779-18.515-14.737 0-7.179 5.29-9.824 11.336-11.336l18.137-4.534c10.58-2.645 19.271-7.557 19.271-19.649 0-5.29-2.267-21.16-28.339-21.16-17.759 0-30.607 7.935-29.851 26.072h7.179zM1048.183 201.635c-5.29-6.801-13.225-11.336-21.916-11.336-12.847 0-22.672 7.557-22.672 20.782 0 10.58 9.824 17.759 18.137 22.294-4.156 5.29-9.069 10.58-9.069 18.137 0 9.069 7.557 15.114 16.626 15.114s16.626-6.046 16.626-15.114c0-9.446-7.179-14.737-14.737-19.271l16.248-19.649c1.889 3.779 2.267 6.801 2.267 12.469h6.424c0-4.156-0.756-11.336-4.534-17.759l12.469-15.114h-8.313l-7.557 9.446zM1025.511 228.841c-7.179-3.779-15.114-9.446-15.114-18.515 0-8.691 7.557-14.737 16.248-14.737 7.557 0 13.603 4.534 17.759 10.58l-18.893 22.672zM1019.466 251.135c0-5.29 5.29-10.958 8.313-15.114 5.29 3.401 11.336 7.935 11.336 15.114 0 6.046-4.534 9.446-9.824 9.446-5.29 0.378-9.824-3.401-9.824-9.446zM1099.95 266.249h34.007c12.469 0 22.672-6.046 22.672-19.271 0-9.446-4.912-17.004-14.359-18.893v-0.378c9.824-1.134 12.469-7.935 13.225-16.626 0.378-5.29 0.378-15.492 3.401-19.271h-7.935c-1.889 3.023-1.889 8.313-1.889 11.714-0.756 10.58-1.511 21.916-15.114 21.538h-26.828v-33.252h-7.179v74.438zM1107.129 230.731h26.45c8.691 0 16.248 5.29 16.248 14.359s-5.29 14.737-16.248 14.737h-26.45v-29.095zM1191.77 266.249h7.935l29.095-74.438h-7.557l-9.069 23.049h-34.007l-9.069-23.049h-7.557l30.229 74.438zM1180.434 220.906h29.473l-14.359 38.164-15.114-38.164zM1220.487 266.249h58.946v-6.046h-26.072v-68.393h-7.179v68.393h-25.694v6.046zM1282.834 266.249h53.656v-6.424l-49.122-62.347h50.255v-6.046h-58.19v6.424l49.122 62.347h-45.721v6.046zM1346.314 266.249h7.179v-68.393h41.942v-6.046h-48.744v74.438zM1424.154 266.249h7.935l29.095-74.438h-7.557l-9.069 23.049h-34.007l-9.069-23.049h-7.557l30.229 74.438zM1413.196 220.906h29.473l-14.359 38.164-15.114-38.164zM1468.363 266.249h47.232v-6.046h-40.053v-26.828h35.897v-6.046h-35.897v-35.519h-7.179v74.438zM1524.286 266.249h47.232v-6.046h-40.053v-26.828h35.897v-6.046h-35.897v-35.519h-7.179v74.438zM1609.305 266.249h25.694c22.294-0.378 34.385-12.847 34.385-37.408s-11.714-36.652-34.385-37.408h-25.694v74.816zM1616.484 197.857h15.114c21.538 0 30.607 9.069 30.607 31.362s-9.446 31.362-30.607 31.362h-15.114v-62.725zM1681.098 266.249h51.389v-6.046h-44.21v-26.828h41.565v-6.046h-41.565v-29.473h44.965v-6.046h-52.145v74.438zM1734.754 266.249h7.557l24.183-66.881h0.378l24.183 66.881h7.557l-27.584-74.438h-8.313l-27.962 74.438zM1804.658 266.249h51.389v-6.046h-44.21v-26.828h41.565v-6.046h-41.565v-29.473h44.965v-6.046h-52.145v74.438zM1866.627 266.249h7.179v-68.393h41.942v-6.046h-49.122v74.438zM1953.913 267.761c23.427 0 35.141-18.515 35.141-38.92s-11.714-38.92-35.141-38.92c-23.427 0-35.141 18.515-35.141 38.92s11.714 38.92 35.141 38.92zM1953.913 196.345c19.649 0 27.962 16.626 27.962 32.874s-8.313 32.874-27.962 32.874c-19.649 0-27.962-16.626-27.962-32.874 0-16.626 8.313-32.874 27.962-32.874zM2000.012 266.249h33.252c13.225 0 22.294-7.935 22.294-21.16 0-13.603-8.691-21.16-22.294-21.16h-26.072v-32.118h-7.179v74.438zM2007.191 229.597h24.561c9.824 0 16.626 4.912 16.626 15.114s-6.801 15.114-16.626 15.114h-24.561v-30.229zM2065.759 266.249h10.58l25.694-65.37 25.694 65.37h10.58v-74.438h-7.179v64.614h-0.378l-25.317-64.614h-6.801l-25.694 64.614h-0.378v-64.614h-7.179v74.438zM2153.045 266.249h51.389v-6.046h-44.21v-26.828h41.565v-6.046h-41.565v-29.473h44.965v-6.046h-52.145v74.438zM2214.636 266.249h7.935l43.454-63.103h0.378v63.103h7.179v-74.438h-7.935l-43.832 63.103v-63.103h-7.179v74.438zM2280.384 266.249h58.946v-6.046h-26.072v-68.393h-7.179v68.393h-26.072v6.046zM2375.227 266.249h7.179v-68.393h41.942v-6.046h-48.744v74.438zM2413.768 266.249h58.946v-6.046h-26.072v-68.393h-7.179v68.393h-26.072v6.046zM2479.894 266.249h25.694c22.294-0.378 34.385-12.847 34.385-37.408s-11.714-36.652-34.385-37.408h-25.694v74.816zM2487.073 197.857h15.114c21.538 0 30.607 9.069 30.607 31.362s-9.446 31.362-30.607 31.362h-15.114v-62.725zM2553.954 191.811v10.958h8.691v-10.958h-8.691zM549.786 707.968h131.495c40.053 0 67.637-2.645 82.751-7.557 18.893-6.046 34.385-16.248 46.855-30.985s18.515-33.252 18.515-55.923c0-19.271-4.534-35.897-13.981-49.877-11.336-17.004-24.939-28.717-41.187-35.897s-41.565-10.58-76.328-10.58h-60.835v-85.396c0-12.847 0.756-20.782 2.267-24.183 1.889-4.534 4.534-7.935 7.935-9.824s10.202-2.645 20.404-2.645h11.336v-20.027h-128.85v20.027h7.935c10.958 0 18.515 0.756 22.294 2.645 4.156 1.889 6.801 4.534 8.691 8.691 1.889 3.779 2.645 11.336 2.645 21.916v227.849c0 10.58-0.756 17.759-2.645 21.16-1.511 3.779-4.534 6.424-8.313 7.935s-11.714 2.645-23.049 2.645h-7.935v20.027zM636.694 681.895v-139.43h51.389c26.072 0 44.21 2.267 54.412 6.801 10.58 4.534 18.893 12.469 26.072 23.805 6.801 11.336 10.202 24.561 10.202 40.053 0 16.626-4.156 30.607-12.092 41.942s-18.893 18.893-32.496 22.672c-9.446 2.645-28.339 4.156-55.923 4.156h-41.565zM878.146 707.968h128.094v-20.027h-8.691c-10.202 0-17.382-1.134-21.916-3.023s-7.557-5.29-9.069-10.202c-1.511-3.401-2.267-10.958-2.267-22.294v-92.576h172.304v90.308c0 12.469-0.378 19.649-1.134 22.294-1.134 5.29-4.156 9.069-8.313 11.336-4.156 2.645-10.58 3.779-19.271 3.779h-13.225v20.027h127.339v-19.649h-11.336c-9.069 0-15.114-1.134-18.893-3.023s-6.424-4.534-7.935-8.313c-1.511-3.401-2.267-10.958-2.267-22.294v-226.338c0-12.469 0.756-20.404 2.267-23.805s4.912-5.668 9.446-7.179c3.023-1.134 12.469-1.511 28.717-1.511v-20.027h-127.339v20.027h9.446c11.714 0 19.649 0.756 23.427 2.267s6.424 4.156 7.557 7.557c1.134 2.645 1.511 10.958 1.511 25.317v103.534h-172.304v-106.179c0-12.469 0.756-20.404 2.645-24.183 1.511-3.401 4.912-6.046 9.824-7.179 3.401-1.134 13.603-1.511 29.851-1.511v-20.027h-128.094v20.027h7.935c12.469 0 20.027 0.756 23.427 1.889 3.023 1.511 5.668 3.779 7.557 7.935 1.889 3.779 2.645 10.58 2.645 20.404v228.983c0 10.58-0.756 17.759-2.645 21.538-1.511 4.156-4.156 6.801-7.935 9.069-3.401 1.889-9.446 3.023-17.759 3.023h-13.225v20.027zM1446.447 562.492h63.858v-11.714h-7.557c-5.668 0-9.446-0.378-11.336-1.134s-3.779-2.267-4.912-4.156c-1.511-1.889-2.645-4.912-3.023-8.691-3.401-19.271-10.202-37.408-20.782-53.656 1.889-4.912 4.912-10.202 9.069-15.87s7.935-9.069 11.336-10.958c3.023-1.889 6.801-2.645 10.202-2.645 4.534 0 8.691 1.511 11.714 4.156 3.023 3.023 4.534 6.424 4.534 10.202 0 3.023-0.756 5.668-1.889 7.557s-4.156 3.779-7.935 5.668c-3.401 1.511-5.668 3.401-6.801 5.668-1.511 2.267-1.889 4.534-1.889 7.179 0 3.779 1.134 6.424 3.401 9.069 2.267 2.267 5.29 3.401 9.069 3.401 6.424 0 12.092-2.645 17.004-8.313s7.179-12.847 7.179-21.16c0-10.202-3.779-19.271-11.714-26.45-7.935-7.557-17.004-11.336-27.962-11.336-7.557 0-14.737 1.889-21.16 5.668-6.801 3.779-13.225 10.202-20.027 19.271-9.446-8.313-17.382-13.981-24.561-17.382-10.202-4.912-21.16-7.179-33.252-7.179-13.225 0-24.939 2.645-35.519 7.935s-18.515 12.469-24.183 21.538c-5.668 9.069-8.691 18.893-8.691 29.473 0 10.202 2.267 19.271 7.179 27.206 4.912 8.313 12.092 15.492 21.538 21.916 7.179 4.534 15.87 8.691 26.072 12.092-7.557 3.023-13.225 6.424-17.382 9.824-3.779 3.401-6.801 7.557-9.069 12.092s-3.023 9.446-3.023 14.737c0 10.958 4.156 20.404 12.847 27.962 9.446 8.313 21.16 12.847 34.385 12.847s24.183-3.779 32.874-11.714c8.691-7.935 12.847-17.004 12.847-27.584 0-7.179-1.889-13.603-5.29-19.649s-8.691-10.958-14.737-15.114c-4.156-2.645-9.446-4.912-15.87-6.424 7.935-2.645 14.737-6.046 20.027-10.202 5.668-4.156 10.958-10.202 17.004-18.137 5.668-7.935 11.336-18.137 17.004-30.229 8.691 19.649 13.225 34.385 13.225 44.21 0 3.401-1.134 5.668-3.023 7.179s-6.046 2.267-12.092 2.267h-7.935v10.58zM1386.745 552.289c-11.336-5.668-18.137-9.446-20.782-11.336-4.156-3.023-7.935-6.801-11.336-11.336s-5.668-9.069-7.179-13.603c-1.511-4.534-2.267-9.069-2.267-14.359 0-11.336 3.779-21.916 11.336-30.985 9.824-11.714 22.294-17.759 37.030-17.759 7.557 0 14.737 1.511 21.538 4.912 9.446 4.534 17.382 9.824 23.427 16.248-0.756 1.134-1.889 3.401-3.401 6.424l-21.538 42.32c-1.889 3.779-4.156 7.935-7.557 12.847-1.889 3.023-4.534 6.046-7.557 8.691-2.645 3.023-6.801 5.668-11.714 7.935zM1392.413 623.705c-7.557 0-13.603-2.645-18.515-7.935s-7.557-12.092-7.557-20.782c0-8.313 2.645-15.114 7.557-20.404s11.336-7.935 18.515-7.935c7.179 0 13.225 2.645 18.515 7.935s7.557 12.092 7.557 20.027c0 8.691-2.645 15.492-7.557 20.782-4.912 5.668-10.958 8.313-18.515 8.313zM1596.458 707.968h171.926c32.496 0 57.057-3.401 74.061-10.202 16.626-6.801 29.473-16.626 38.542-29.473s13.603-27.584 13.603-44.587c0-17.382-4.534-32.874-13.225-46.099-8.691-13.603-21.538-24.183-37.786-31.74-16.626-7.557-38.542-11.714-65.748-12.092l88.041-107.312c7.179-9.069 11.714-14.359 13.981-16.626 5.668-4.912 11.336-8.691 17.382-11.336s12.847-3.779 20.782-3.779h6.046v-20.027h-75.572l-122.427 158.701h-42.698v-102.4c0-11.336 0.378-18.515 1.134-21.538 1.889-5.29 4.534-9.069 8.313-11.336s11.336-3.401 22.672-3.401h8.691v-20.027h-127.339v20.027h11.336c8.691 0 14.359 0.378 17.382 1.511s5.668 3.023 7.935 5.668c2.267 2.645 3.779 6.424 4.912 10.58 0.378 1.889 0.378 9.824 0.756 24.183v218.403c0 9.824-1.134 16.626-3.023 20.782s-4.534 7.179-7.935 9.069c-3.401 1.889-9.446 2.645-17.759 2.645h-13.603v20.404zM1682.987 681.895v-125.072h68.393c23.427 0 39.675 1.511 49.122 4.156 13.225 3.779 23.805 10.958 31.74 21.16 7.557 10.202 11.714 23.049 11.714 38.92 0 13.225-2.645 24.561-8.313 33.63s-13.225 15.87-22.672 20.404c-9.446 4.534-23.805 6.801-43.076 6.801h-86.908zM1972.428 687.941v20.027h118.648c54.412 0 92.198-3.401 113.736-10.202 31.74-10.202 57.435-28.717 77.083-55.923 21.916-30.229 32.496-64.992 32.496-104.289 0-26.828-5.29-51.389-16.248-74.438-10.58-23.049-24.939-41.565-42.32-55.545-14.359-11.714-31.74-20.027-52.145-24.939s-40.809-7.179-61.591-7.179h-170.037v20.027h13.981l4.534-0.378c6.046 0 10.58 1.134 14.359 3.401s6.424 5.668 7.935 9.446c1.134 3.023 1.511 10.202 1.511 21.16v222.559c0 12.469-0.756 20.782-2.267 24.561-2.267 4.912-5.668 8.313-10.58 10.202-2.645 0.756-12.469 1.511-29.095 1.511zM2058.958 400.768h72.171c7.179 0 18.893 1.134 35.519 3.779s28.339 5.668 35.519 9.446c10.58 5.29 20.782 13.981 30.607 26.072s17.382 26.45 22.672 43.076c5.29 16.626 7.935 35.897 7.935 57.435s-2.645 40.053-7.935 55.923c-5.29 15.87-13.225 29.851-24.183 42.32-10.58 12.469-22.672 22.294-35.897 28.717s-27.962 10.958-44.21 12.469c-8.691 0.756-23.427 1.134-43.832 1.134h-49.122v-280.372z" />
</font></defs></svg>